﻿hint_1|What you do or you choose sometimes will put an effect on the development of story. 
hint_2|In the rain day, the horse and human moves slower, and the bow/crossbow's effect becomes bad.
hint_3|In Map Mode, you can hold the 'Space' key to have the time pass in game, and 'Ctrl' + 'Space' to accelerate it.
hint_4|You can find the weapon/armor merchant to improve your weapon/equipment and fuse it with the crystal.
hint_5|Press the right 'Ctrl' key to the unit ordering panel during the battle.
hint_6|Morale enhancement can speed up the march in Map Mode.
hint_7|You may rest in hotel to help the wounded soldiers to recover sooner.
hint_8|At the shopping page, you may hold 'Ctrl' key and click mouse to rapid buy/sell the goods. 
hint_9|'Tactics' points will be given to you automatically for your operation of 'Trap', 'Feint', etc.
hint_10|The salary is paid by half when you stay in town or castle. And the troop staying at castle should be paid by half, in the same way.
hint_11|While camping you can remove/equip the armors for horses. Horse armors can be also bought from the horse merchant.  
hint_12|Hold 'Shift' key to zoom in for aiming the target in the distance. In the sea fights, the soldier falling in water will be drowned.